^O:\GUERTZIG\OOP\GRUPPEB\TRAFFIC\DEBUG\JUNCTION.OBJ|O:\GUERTZIG\OOP\GRUPPEB\TRAFFIC\DEBUG\LENGTH.OBJ|O:\GUERTZIG\OOP\GRUPPEB\TRAFFIC\DEBUG\MAIN.OBJ|O:\GUERTZIG\OOP\GRUPPEB\TRAFFIC\DEBUG\MOTORVEHICLE.OBJ|O:\GUERTZIG\OOP\GRUPPEB\TRAFFIC\DEBUG\ROAD.OBJ|O:\GUERTZIG\OOP\GRUPPEB\TRAFFIC\DEBUG\VEHICLE.OBJ
C:\PROGRAM FILES (X86)\WINDOWS KITS\10\LIB\10.0.17134.0\UM\X86\KERNEL32.LIB
C:\PROGRAM FILES (X86)\WINDOWS KITS\10\LIB\10.0.17134.0\UM\X86\USER32.LIB
C:\PROGRAM FILES (X86)\WINDOWS KITS\10\LIB\10.0.17134.0\UM\X86\GDI32.LIB
C:\PROGRAM FILES (X86)\WINDOWS KITS\10\LIB\10.0.17134.0\UM\X86\WINSPOOL.LIB
C:\PROGRAM FILES (X86)\WINDOWS KITS\10\LIB\10.0.17134.0\UM\X86\COMDLG32.LIB
C:\PROGRAM FILES (X86)\WINDOWS KITS\10\LIB\10.0.17134.0\UM\X86\ADVAPI32.LIB
C:\PROGRAM FILES (X86)\WINDOWS KITS\10\LIB\10.0.17134.0\UM\X86\SHELL32.LIB
C:\PROGRAM FILES (X86)\WINDOWS KITS\10\LIB\10.0.17134.0\UM\X86\OLE32.LIB
C:\PROGRAM FILES (X86)\WINDOWS KITS\10\LIB\10.0.17134.0\UM\X86\OLEAUT32.LIB
C:\PROGRAM FILES (X86)\WINDOWS KITS\10\LIB\10.0.17134.0\UM\X86\UUID.LIB
C:\PROGRAM FILES (X86)\WINDOWS KITS\10\LIB\10.0.17134.0\UM\X86\ODBC32.LIB
C:\PROGRAM FILES (X86)\WINDOWS KITS\10\LIB\10.0.17134.0\UM\X86\ODBCCP32.LIB
O:\GUERTZIG\OOP\GRUPPEB\TRAFFIC\DEBUG\JUNCTION.OBJ
O:\GUERTZIG\OOP\GRUPPEB\TRAFFIC\DEBUG\LENGTH.OBJ
O:\GUERTZIG\OOP\GRUPPEB\TRAFFIC\DEBUG\MAIN.OBJ
O:\GUERTZIG\OOP\GRUPPEB\TRAFFIC\DEBUG\MOTORVEHICLE.OBJ
O:\GUERTZIG\OOP\GRUPPEB\TRAFFIC\DEBUG\ROAD.OBJ
O:\GUERTZIG\OOP\GRUPPEB\TRAFFIC\DEBUG\VEHICLE.OBJ
C:\WINDOWS\GLOBALIZATION\SORTING\SORTDEFAULT.NLS
C:\PROGRAM FILES (X86)\MICROSOFT VISUAL STUDIO\2017\ENTERPRISE\VC\TOOLS\MSVC\14.15.26726\LIB\X86\MSVCPRTD.LIB
C:\PROGRAM FILES (X86)\MICROSOFT VISUAL STUDIO\2017\ENTERPRISE\VC\TOOLS\MSVC\14.15.26726\LIB\X86\MSVCRTD.LIB
C:\PROGRAM FILES (X86)\MICROSOFT VISUAL STUDIO\2017\ENTERPRISE\VC\TOOLS\MSVC\14.15.26726\LIB\X86\OLDNAMES.LIB
C:\PROGRAM FILES (X86)\MICROSOFT VISUAL STUDIO\2017\ENTERPRISE\VC\TOOLS\MSVC\14.15.26726\LIB\X86\VCRUNTIMED.LIB
C:\PROGRAM FILES (X86)\WINDOWS KITS\10\LIB\10.0.17134.0\UCRT\X86\UCRTD.LIB
C:\PROGRAM FILES (X86)\WINDOWS KITS\10\BIN\10.0.17134.0\X86\RC.EXE
C:\PROGRAM FILES (X86)\MICROSOFT VISUAL STUDIO\2017\ENTERPRISE\VC\TOOLS\MSVC\14.15.26726\BIN\HOSTX86\X86\CVTRES.EXE
C:\PROGRAM FILES (X86)\MICROSOFT VISUAL STUDIO\2017\ENTERPRISE\VC\TOOLS\MSVC\14.15.26726\BIN\HOSTX86\X86\MSPDBSRV.EXE
C:\WINDOWS\SYSTEM32\TZRES.DLL
