^O:\GUERTZIG\OOP\GRUPPEB\TRAFFIC\X64\DEBUG\JUNCTION.OBJ|O:\GUERTZIG\OOP\GRUPPEB\TRAFFIC\X64\DEBUG\LENGTH.OBJ|O:\GUERTZIG\OOP\GRUPPEB\TRAFFIC\X64\DEBUG\MAIN.OBJ|O:\GUERTZIG\OOP\GRUPPEB\TRAFFIC\X64\DEBUG\MOTORVEHICLE.OBJ|O:\GUERTZIG\OOP\GRUPPEB\TRAFFIC\X64\DEBUG\ROAD.OBJ|O:\GUERTZIG\OOP\GRUPPEB\TRAFFIC\X64\DEBUG\ROADNETWORK.OBJ|O:\GUERTZIG\OOP\GRUPPEB\TRAFFIC\X64\DEBUG\VEHICLE.OBJ|O:\GUERTZIG\OOP\GRUPPEB\X64\DEBUG\GEOMETRY.LIB|O:\GUERTZIG\OOP\GRUPPEB\X64\DEBUG\TURTLEDRAWER.LIB|O:\GUERTZIG\OOP\GRUPPEB\X64\DEBUG\TURTLEIZER.LIB
/OUT:"O:\GUERTZIG\OOP\GRUPPEB\X64\DEBUG\TRAFFIC.EXE" /INCREMENTAL /NOLOGO KERNEL32.LIB USER32.LIB GDI32.LIB WINSPOOL.LIB COMDLG32.LIB ADVAPI32.LIB SHELL32.LIB OLE32.LIB OLEAUT32.LIB UUID.LIB ODBC32.LIB ODBCCP32.LIB /MANIFEST /MANIFESTUAC:"level='asInvoker' uiAccess='false'" /manifest:embed /DEBUG:FASTLINK /PDB:"O:\GUERTZIG\OOP\GRUPPEB\X64\DEBUG\TRAFFIC.PDB" /TLBID:1 /DYNAMICBASE /NXCOMPAT /IMPLIB:"O:\GUERTZIG\OOP\GRUPPEB\X64\DEBUG\TRAFFIC.LIB" /MACHINE:X64 X64\DEBUG\JUNCTION.OBJX64\DEBUG\LENGTH.OBJX64\DEBUG\MAIN.OBJX64\DEBUG\MOTORVEHICLE.OBJX64\DEBUG\ROAD.OBJX64\DEBUG\ROADNETWORK.OBJX64\DEBUG\VEHICLE.OBJO:\GUERTZIG\OOP\GRUPPEB\X64\DEBUG\GEOMETRY.LIBO:\GUERTZIG\OOP\GRUPPEB\X64\DEBUG\TURTLEIZER.LIBO:\GUERTZIG\OOP\GRUPPEB\X64\DEBUG\TURTLEDRAWER.LIB
^C:\USERS\USER\DESKTOP\GRUPPEB\TRAFFIC\X64\DEBUG\JUNCTION.OBJ|C:\USERS\USER\DESKTOP\GRUPPEB\TRAFFIC\X64\DEBUG\LENGTH.OBJ|C:\USERS\USER\DESKTOP\GRUPPEB\TRAFFIC\X64\DEBUG\MAIN.OBJ|C:\USERS\USER\DESKTOP\GRUPPEB\TRAFFIC\X64\DEBUG\MOTORVEHICLE.OBJ|C:\USERS\USER\DESKTOP\GRUPPEB\TRAFFIC\X64\DEBUG\ROAD.OBJ|C:\USERS\USER\DESKTOP\GRUPPEB\TRAFFIC\X64\DEBUG\ROADNETWORK.OBJ|C:\USERS\USER\DESKTOP\GRUPPEB\TRAFFIC\X64\DEBUG\VEHICLE.OBJ|C:\USERS\USER\DESKTOP\GRUPPEB\X64\DEBUG\GEOMETRY.LIB
/OUT:"C:\USERS\USER\DESKTOP\GRUPPEB\X64\DEBUG\TRAFFIC.EXE" /INCREMENTAL /NOLOGO KERNEL32.LIB USER32.LIB GDI32.LIB WINSPOOL.LIB COMDLG32.LIB ADVAPI32.LIB SHELL32.LIB OLE32.LIB OLEAUT32.LIB UUID.LIB ODBC32.LIB ODBCCP32.LIB /MANIFEST /MANIFESTUAC:"level='asInvoker' uiAccess='false'" /manifest:embed /DEBUG:FASTLINK /PDB:"C:\USERS\USER\DESKTOP\GRUPPEB\X64\DEBUG\TRAFFIC.PDB" /TLBID:1 /DYNAMICBASE /NXCOMPAT /IMPLIB:"C:\USERS\USER\DESKTOP\GRUPPEB\X64\DEBUG\TRAFFIC.LIB" /MACHINE:X64 X64\DEBUG\JUNCTION.OBJX64\DEBUG\LENGTH.OBJX64\DEBUG\MAIN.OBJX64\DEBUG\MOTORVEHICLE.OBJX64\DEBUG\ROAD.OBJX64\DEBUG\ROADNETWORK.OBJX64\DEBUG\VEHICLE.OBJC:\USERS\USER\DESKTOP\GRUPPEB\X64\DEBUG\GEOMETRY.LIB
^C:\USERS\USER\SOURCE\REPOS\HA3\TRAFFIC\X64\DEBUG\JUNCTION.OBJ|C:\USERS\USER\SOURCE\REPOS\HA3\TRAFFIC\X64\DEBUG\LENGTH.OBJ|C:\USERS\USER\SOURCE\REPOS\HA3\TRAFFIC\X64\DEBUG\MAIN.OBJ|C:\USERS\USER\SOURCE\REPOS\HA3\TRAFFIC\X64\DEBUG\MOTORVEHICLE.OBJ|C:\USERS\USER\SOURCE\REPOS\HA3\TRAFFIC\X64\DEBUG\ROAD.OBJ|C:\USERS\USER\SOURCE\REPOS\HA3\TRAFFIC\X64\DEBUG\ROADNETWORK.OBJ|C:\USERS\USER\SOURCE\REPOS\HA3\TRAFFIC\X64\DEBUG\VEHICLE.OBJ|C:\USERS\USER\SOURCE\REPOS\HA3\X64\DEBUG\GEOMETRY.LIB
/OUT:"C:\USERS\USER\SOURCE\REPOS\HA3\X64\DEBUG\TRAFFIC.EXE" /INCREMENTAL /NOLOGO KERNEL32.LIB USER32.LIB GDI32.LIB WINSPOOL.LIB COMDLG32.LIB ADVAPI32.LIB SHELL32.LIB OLE32.LIB OLEAUT32.LIB UUID.LIB ODBC32.LIB ODBCCP32.LIB /MANIFEST /MANIFESTUAC:"level='asInvoker' uiAccess='false'" /manifest:embed /DEBUG:FASTLINK /PDB:"C:\USERS\USER\SOURCE\REPOS\HA3\X64\DEBUG\TRAFFIC.PDB" /TLBID:1 /DYNAMICBASE /NXCOMPAT /IMPLIB:"C:\USERS\USER\SOURCE\REPOS\HA3\X64\DEBUG\TRAFFIC.LIB" /MACHINE:X64 X64\DEBUG\JUNCTION.OBJX64\DEBUG\LENGTH.OBJX64\DEBUG\MAIN.OBJX64\DEBUG\MOTORVEHICLE.OBJX64\DEBUG\ROAD.OBJX64\DEBUG\ROADNETWORK.OBJX64\DEBUG\VEHICLE.OBJC:\USERS\USER\SOURCE\REPOS\HA3\X64\DEBUG\GEOMETRY.LIB
